තදින්
ස්වෙච්ඡාවෙන්
හොදින්
හරසරින්
මනහර
සුවයේ
ශාන්ත
තරයේම
මනාව
අනග
බොහෝ
ඊයේ
අද
හෙට
දැන්
එවිට
පසුව
රෑ
මේ
උදෑසන
ලබන
සතියෙ
දැනටමත්
ලඟදි
මෑතකදි
ඉක්මණින්
ක්ෂණිකවම
තවමත්
පෙර
මෙ‍තන
අතන
අන්න
හැමතැනම
ඕනෑම
තැනක
කොහෙවත්නැත
ඈත්ව
එපිට
ඉතා
බොහෝ
සෙයින්
හුඟක්
සැබවින්ම
ඉක්මනින්
හොඳට
අමාරුවෙන්
විගසින්
සෙමින්
ප්‍රවේසමෙන්
නැතිතරම්
මඳ
වශයෙන්
වැඩි
මුළුමනින්
පාහේ
නිසැකවම
එකට
තනියම
සැමවිට
නිතර
සාමාන්‍යයෙන්
සමහර
වෙලාවට
ඇතැම්විට
ඉඳහිට
කලාතුරකින්
කිසිදා
නැත